…
Agrupar los hexágonos de la matriz ambiental.

``` r
(m_amb_upgma <- env %>%
   rownames_to_column('hex_id') %>% 
   mutate(grupos_upgma) %>%
   pivot_longer(-c(grupos_upgma, hex_id), names_to = "variable", values_to = "valor") %>% 
   inner_join(za %>% select(hex_id)))
```

    ## # A tibble: 9,112 × 5
    ##    hex_id          grupos_upgma variable         valor                  geometry
    ##    <chr>           <fct>        <chr>            <dbl>             <POLYGON [°]>
    ##  1 864cd426fffffff 1            ESA Trees      23.3    ((-69.78815 18.54923, -6…
    ##  2 864cd426fffffff 1            ESA Shrubland   0.0166 ((-69.78815 18.54923, -6…
    ##  3 864cd426fffffff 1            ESA Grassland  32.1    ((-69.78815 18.54923, -6…
    ##  4 864cd426fffffff 1            ESA Cropland    0.256  ((-69.78815 18.54923, -6…
    ##  5 864cd426fffffff 1            ESA Built-up   43.2    ((-69.78815 18.54923, -6…
    ##  6 864cd426fffffff 1            ESA Barren / …  1.04   ((-69.78815 18.54923, -6…
    ##  7 864cd426fffffff 1            ESA Open water  0.151  ((-69.78815 18.54923, -6…
    ##  8 864cd426fffffff 1            ESA Herbaceou…  0.0173 ((-69.78815 18.54923, -6…
    ##  9 864cd426fffffff 1            ESA Mangroves   0      ((-69.78815 18.54923, -6…
    ## 10 864cd426fffffff 1            CGL Closed fo…  0      ((-69.78815 18.54923, -6…
    ## # … with 9,102 more rows

``` r
(m_amb_ward <- env %>%
    rownames_to_column('hex_id') %>% 
    mutate(grupos_ward) %>%
    pivot_longer(-c(grupos_ward, hex_id), names_to = "variable", values_to = "valor") %>% 
    inner_join(za %>% select(hex_id)))
```

    ## # A tibble: 9,112 × 5
    ##    hex_id          grupos_ward variable          valor                  geometry
    ##    <chr>           <fct>       <chr>             <dbl>             <POLYGON [°]>
    ##  1 864cd426fffffff 1           ESA Trees       23.3    ((-69.78815 18.54923, -6…
    ##  2 864cd426fffffff 1           ESA Shrubland    0.0166 ((-69.78815 18.54923, -6…
    ##  3 864cd426fffffff 1           ESA Grassland   32.1    ((-69.78815 18.54923, -6…
    ##  4 864cd426fffffff 1           ESA Cropland     0.256  ((-69.78815 18.54923, -6…
    ##  5 864cd426fffffff 1           ESA Built-up    43.2    ((-69.78815 18.54923, -6…
    ##  6 864cd426fffffff 1           ESA Barren / s…  1.04   ((-69.78815 18.54923, -6…
    ##  7 864cd426fffffff 1           ESA Open water   0.151  ((-69.78815 18.54923, -6…
    ##  8 864cd426fffffff 1           ESA Herbaceous…  0.0173 ((-69.78815 18.54923, -6…
    ##  9 864cd426fffffff 1           ESA Mangroves    0      ((-69.78815 18.54923, -6…
    ## 10 864cd426fffffff 1           CGL Closed for…  0      ((-69.78815 18.54923, -6…
    ## # … with 9,102 more rows
…
