…
I de Moran local, por medio de mapas LISA de *hotspots* y *coldspots*
(los explico en el vídeo referido). Aquí descubirás los *hotspots* de
las variables ambientales y de las especies. La coincidencia de
*hotspots* es un indicador, a priori, de que existe algún grado de
asociación.

``` r
env_sf_num <- env_sf %>%
  select_if(is.numeric) %>% 
  replace(is.na(.), 0)
env_sf_num %>% tibble
```

    ## # A tibble: 335 × 138
    ##    `ESA Trees` `ESA Shrubland` `ESA Grassland` `ESA Cropland` `ESA Built-up`
    ##          <dbl>           <dbl>           <dbl>          <dbl>          <dbl>
    ##  1  12.6                18.4            25.1          7.22          0.622   
    ##  2  17.3                 6.25           20.7         51.9           2.83    
    ##  3   1.23                7.35           12.9          0.118         0.454   
    ##  4  24.2                10.5            36.3         13.9           0.738   
    ##  5   0.702               6.58            5.26         0.0529        2.55    
    ##  6   9.32               58.2            10.3         17.7           1.44    
    ##  7   0.0000434           0.560           0.249        0.00174       0.000608
    ##  8   1.29               16.8             0.657        0.0435        0.0155  
    ##  9  60.7                17.2            14.3          3.39          2.13    
    ## 10  66.4                 6.22           26.2          0.229         0.941   
    ## # … with 325 more rows, and 133 more variables:
    ## #   `ESA Barren / sparse vegetation` <dbl>, `ESA Open water` <dbl>,
    ## #   `ESA Herbaceous wetland` <dbl>, `ESA Mangroves` <dbl>,
    ## #   `CGL Closed forest, evergreen needle leaf` <dbl>,
    ## #   `CGL Closed forest, evergreen broad leaf` <dbl>,
    ## #   `CGL Closed forest, deciduous broad leaf` <dbl>,
    ## #   `CGL Closed forest, mixed` <dbl>, …
…
