…
Agrupar los hexágonos de la matriz ambiental.

``` r
(m_amb_upgma <- env %>%
   rownames_to_column('hex_id') %>% 
   mutate(grupos_upgma) %>%
   pivot_longer(-c(grupos_upgma, hex_id), names_to = "variable", values_to = "valor") %>% 
   inner_join(za %>% select(hex_id)))
```

    ## # A tibble: 8,432 × 5
    ##    hex_id          grupos_upgma variable         valor                  geometry
    ##    <chr>           <fct>        <chr>            <dbl>             <POLYGON [°]>
    ##  1 854cd42ffffffff 1            ESA Trees      2.71e+1 ((-70.00933 18.55153, -7…
    ##  2 854cd42ffffffff 1            ESA Shrubland  6.85e-3 ((-70.00933 18.55153, -7…
    ##  3 854cd42ffffffff 1            ESA Grassland  7.35e+0 ((-70.00933 18.55153, -7…
    ##  4 854cd42ffffffff 1            ESA Cropland   3.44e-2 ((-70.00933 18.55153, -7…
    ##  5 854cd42ffffffff 1            ESA Built-up   5.53e+1 ((-70.00933 18.55153, -7…
    ##  6 854cd42ffffffff 1            ESA Barren / … 6.28e-1 ((-70.00933 18.55153, -7…
    ##  7 854cd42ffffffff 1            ESA Open water 9.42e+0 ((-70.00933 18.55153, -7…
    ##  8 854cd42ffffffff 1            ESA Herbaceou… 1.47e-1 ((-70.00933 18.55153, -7…
    ##  9 854cd42ffffffff 1            ESA Mangroves  0       ((-70.00933 18.55153, -7…
    ## 10 854cd42ffffffff 1            CGL Closed fo… 0       ((-70.00933 18.55153, -7…
    ## # … with 8,422 more rows

``` r
(m_amb_ward <- env %>%
    rownames_to_column('hex_id') %>% 
    mutate(grupos_ward) %>%
    pivot_longer(-c(grupos_ward, hex_id), names_to = "variable", values_to = "valor") %>% 
    inner_join(za %>% select(hex_id)))
```

    ## # A tibble: 8,432 × 5
    ##    hex_id          grupos_ward variable          valor                  geometry
    ##    <chr>           <fct>       <chr>             <dbl>             <POLYGON [°]>
    ##  1 854cd42ffffffff 1           ESA Trees       2.71e+1 ((-70.00933 18.55153, -7…
    ##  2 854cd42ffffffff 1           ESA Shrubland   6.85e-3 ((-70.00933 18.55153, -7…
    ##  3 854cd42ffffffff 1           ESA Grassland   7.35e+0 ((-70.00933 18.55153, -7…
    ##  4 854cd42ffffffff 1           ESA Cropland    3.44e-2 ((-70.00933 18.55153, -7…
    ##  5 854cd42ffffffff 1           ESA Built-up    5.53e+1 ((-70.00933 18.55153, -7…
    ##  6 854cd42ffffffff 1           ESA Barren / s… 6.28e-1 ((-70.00933 18.55153, -7…
    ##  7 854cd42ffffffff 1           ESA Open water  9.42e+0 ((-70.00933 18.55153, -7…
    ##  8 854cd42ffffffff 1           ESA Herbaceous… 1.47e-1 ((-70.00933 18.55153, -7…
    ##  9 854cd42ffffffff 1           ESA Mangroves   0       ((-70.00933 18.55153, -7…
    ## 10 854cd42ffffffff 1           CGL Closed for… 0       ((-70.00933 18.55153, -7…
    ## # … with 8,422 more rows
…
