…
I de Moran local, por medio de mapas LISA de *hotspots* y *coldspots*
(los explico en el vídeo referido). Aquí descubirás los *hotspots* de
las variables ambientales y de las especies. La coincidencia de
*hotspots* es un indicador, a priori, de que existe algún grado de
asociación.

``` r
env_sf_num <- env_sf %>%
  select_if(is.numeric) %>% 
  replace(is.na(.), 0)
env_sf_num %>% tibble
```

    ## # A tibble: 2,017 × 138
    ##    `ESA Trees` `ESA Shrubland` `ESA Grassland` `ESA Cropland` `ESA Built-up`
    ##          <dbl>           <dbl>           <dbl>          <dbl>          <dbl>
    ##  1      7.34           39.3              38.3           1.62         0.405  
    ##  2     21.6             4.86             34.8          36.0          0.626  
    ##  3      0.0194          1.58              1.80          0            0.00152
    ##  4      1.69           19.0              25.7           0.479        1.36   
    ##  5     12.8            35.4              35.5           5.06         2.89   
    ##  6     43.7            18.2              28.3           6.92         0.818  
    ##  7      1.12            8.72              8.71          0            0.00335
    ##  8      7.15            0.514             7.17         84.6          0.151  
    ##  9     20.4            20.0              43.9           7.80         5.83   
    ## 10      2.71            0.0319            4.07         92.7          0.0595 
    ## # … with 2,007 more rows, and 133 more variables:
    ## #   `ESA Barren / sparse vegetation` <dbl>, `ESA Open water` <dbl>,
    ## #   `ESA Herbaceous wetland` <dbl>, `ESA Mangroves` <dbl>,
    ## #   `CGL Closed forest, evergreen needle leaf` <dbl>,
    ## #   `CGL Closed forest, evergreen broad leaf` <dbl>,
    ## #   `CGL Closed forest, deciduous broad leaf` <dbl>,
    ## #   `CGL Closed forest, mixed` <dbl>, …
…
