…
Agrupar los hexágonos de la matriz ambiental.

``` r
(m_amb_upgma <- env %>%
   rownames_to_column('hex_id') %>% 
   mutate(grupos_upgma) %>%
   pivot_longer(-c(grupos_upgma, hex_id), names_to = "variable", values_to = "valor") %>% 
   inner_join(za %>% select(hex_id)))
```

    ## # A tibble: 17,272 × 5
    ##    hex_id          grupos_upgma variable         valor                  geometry
    ##    <chr>           <fct>        <chr>            <dbl>             <POLYGON [°]>
    ##  1 854cd427fffffff 1            ESA Trees      2.21e+1 ((-69.8767 18.59171, -69…
    ##  2 854cd427fffffff 1            ESA Shrubland  6.95e-3 ((-69.8767 18.59171, -69…
    ##  3 854cd427fffffff 1            ESA Grassland  1.90e+1 ((-69.8767 18.59171, -69…
    ##  4 854cd427fffffff 1            ESA Cropland   1.06e-1 ((-69.8767 18.59171, -69…
    ##  5 854cd427fffffff 1            ESA Built-up   5.25e+1 ((-69.8767 18.59171, -69…
    ##  6 854cd427fffffff 1            ESA Barren / … 4.67e-1 ((-69.8767 18.59171, -69…
    ##  7 854cd427fffffff 1            ESA Open water 5.02e+0 ((-69.8767 18.59171, -69…
    ##  8 854cd427fffffff 1            ESA Herbaceou… 8.78e-1 ((-69.8767 18.59171, -69…
    ##  9 854cd427fffffff 1            ESA Mangroves  0       ((-69.8767 18.59171, -69…
    ## 10 854cd427fffffff 1            CGL Closed fo… 0       ((-69.8767 18.59171, -69…
    ## # … with 17,262 more rows

``` r
(m_amb_ward <- env %>%
    rownames_to_column('hex_id') %>% 
    mutate(grupos_ward) %>%
    pivot_longer(-c(grupos_ward, hex_id), names_to = "variable", values_to = "valor") %>% 
    inner_join(za %>% select(hex_id)))
```

    ## # A tibble: 17,272 × 5
    ##    hex_id          grupos_ward variable          valor                  geometry
    ##    <chr>           <fct>       <chr>             <dbl>             <POLYGON [°]>
    ##  1 854cd427fffffff 1           ESA Trees       2.21e+1 ((-69.8767 18.59171, -69…
    ##  2 854cd427fffffff 1           ESA Shrubland   6.95e-3 ((-69.8767 18.59171, -69…
    ##  3 854cd427fffffff 1           ESA Grassland   1.90e+1 ((-69.8767 18.59171, -69…
    ##  4 854cd427fffffff 1           ESA Cropland    1.06e-1 ((-69.8767 18.59171, -69…
    ##  5 854cd427fffffff 1           ESA Built-up    5.25e+1 ((-69.8767 18.59171, -69…
    ##  6 854cd427fffffff 1           ESA Barren / s… 4.67e-1 ((-69.8767 18.59171, -69…
    ##  7 854cd427fffffff 1           ESA Open water  5.02e+0 ((-69.8767 18.59171, -69…
    ##  8 854cd427fffffff 1           ESA Herbaceous… 8.78e-1 ((-69.8767 18.59171, -69…
    ##  9 854cd427fffffff 1           ESA Mangroves   0       ((-69.8767 18.59171, -69…
    ## 10 854cd427fffffff 1           CGL Closed for… 0       ((-69.8767 18.59171, -69…
    ## # … with 17,262 more rows
…
