…
``` r
# (m_amb_upgma <- env %>%
#    rownames_to_column('hex_id') %>% 
#    mutate(grupos_upgma) %>%
#    pivot_longer(-c(grupos_upgma, hex_id), names_to = "variable", values_to = "valor") %>% 
#    inner_join(za %>% select(hex_id)))

(m_amb_ward <- env %>%
    rownames_to_column('hex_id') %>% 
    mutate(grupos_ward) %>%
    pivot_longer(-c(grupos_ward, hex_id), names_to = "variable", values_to = "valor") %>% 
    inner_join(za %>% select(hex_id)))
```

    ## # A tibble: 7,480 × 5
    ##    hex_id          grupos_ward variable          valor                  geometry
    ##    <chr>           <fct>       <chr>             <dbl>             <POLYGON [°]>
    ##  1 864cd4247ffffff 1           ESA Trees       18.1    ((-69.8434 18.54983, -69…
    ##  2 864cd4247ffffff 1           ESA Shrubland    0      ((-69.8434 18.54983, -69…
    ##  3 864cd4247ffffff 1           ESA Grassland    5.89   ((-69.8434 18.54983, -69…
    ##  4 864cd4247ffffff 1           ESA Cropland     0.0973 ((-69.8434 18.54983, -69…
    ##  5 864cd4247ffffff 1           ESA Built-up    74.0    ((-69.8434 18.54983, -69…
    ##  6 864cd4247ffffff 1           ESA Barren / s…  0.0940 ((-69.8434 18.54983, -69…
    ##  7 864cd4247ffffff 1           ESA Open water   0.622  ((-69.8434 18.54983, -69…
    ##  8 864cd4247ffffff 1           ESA Herbaceous…  1.16   ((-69.8434 18.54983, -69…
    ##  9 864cd4247ffffff 1           ESA Mangroves    0      ((-69.8434 18.54983, -69…
    ## 10 864cd4247ffffff 1           CGL Closed for…  0      ((-69.8434 18.54983, -69…
    ## # … with 7,470 more rows
…
