…
``` r
# (m_amb_upgma <- env %>%
#    rownames_to_column('hex_id') %>% 
#    mutate(grupos_upgma) %>%
#    pivot_longer(-c(grupos_upgma, hex_id), names_to = "variable", values_to = "valor") %>% 
#    inner_join(za %>% select(hex_id)))

(m_amb_ward <- env %>%
    rownames_to_column('hex_id') %>% 
    mutate(grupos_ward) %>%
    pivot_longer(-c(grupos_ward, hex_id), names_to = "variable", values_to = "valor") %>% 
    inner_join(za %>% select(hex_id)))
```

    ## # A tibble: 4,896 × 5
    ##    hex_id          grupos_ward variable          valor                  geometry
    ##    <chr>           <fct>       <chr>             <dbl>             <POLYGON [°]>
    ##  1 864cd5127ffffff 1           ESA Trees       1.34e+1 ((-69.31391 18.50197, -6…
    ##  2 864cd5127ffffff 1           ESA Shrubland   9.13e-4 ((-69.31391 18.50197, -6…
    ##  3 864cd5127ffffff 1           ESA Grassland   2.89e+1 ((-69.31391 18.50197, -6…
    ##  4 864cd5127ffffff 1           ESA Cropland    1.81e+0 ((-69.31391 18.50197, -6…
    ##  5 864cd5127ffffff 1           ESA Built-up    4.65e+1 ((-69.31391 18.50197, -6…
    ##  6 864cd5127ffffff 1           ESA Barren / s… 6.20e-1 ((-69.31391 18.50197, -6…
    ##  7 864cd5127ffffff 1           ESA Open water  3.51e+0 ((-69.31391 18.50197, -6…
    ##  8 864cd5127ffffff 1           ESA Herbaceous… 3.71e-2 ((-69.31391 18.50197, -6…
    ##  9 864cd5127ffffff 1           ESA Mangroves   5.27e+0 ((-69.31391 18.50197, -6…
    ## 10 864cd5127ffffff 1           CGL Closed for… 0       ((-69.31391 18.50197, -6…
    ## # … with 4,886 more rows
…
