…
Agrupar los hexágonos de la matriz ambiental.

``` r
(m_amb_upgma <- env %>%
   rownames_to_column('hex_id') %>% 
   mutate(grupos_upgma) %>%
   pivot_longer(-c(grupos_upgma, hex_id), names_to = "variable", values_to = "valor") %>% 
   inner_join(za %>% select(hex_id)))
```

    ## # A tibble: 5,032 × 5
    ##    hex_id          grupos_upgma variable         valor                      geom
    ##    <chr>           <fct>        <chr>            <dbl>             <POLYGON [°]>
    ##  1 844cf25ffffffff 1            ESA Trees      31.9    ((-70.53184 19.95335, -7…
    ##  2 844cf25ffffffff 1            ESA Shrubland   0.0191 ((-70.53184 19.95335, -7…
    ##  3 844cf25ffffffff 1            ESA Grassland  12.1    ((-70.53184 19.95335, -7…
    ##  4 844cf25ffffffff 1            ESA Cropland    0.0599 ((-70.53184 19.95335, -7…
    ##  5 844cf25ffffffff 1            ESA Built-up    1.49   ((-70.53184 19.95335, -7…
    ##  6 844cf25ffffffff 1            ESA Barren / …  0.109  ((-70.53184 19.95335, -7…
    ##  7 844cf25ffffffff 1            ESA Open water 53.3    ((-70.53184 19.95335, -7…
    ##  8 844cf25ffffffff 1            ESA Herbaceou…  0.666  ((-70.53184 19.95335, -7…
    ##  9 844cf25ffffffff 1            ESA Mangroves   0.378  ((-70.53184 19.95335, -7…
    ## 10 844cf25ffffffff 1            CGL Closed fo…  0      ((-70.53184 19.95335, -7…
    ## # … with 5,022 more rows

``` r
(m_amb_ward <- env %>%
    rownames_to_column('hex_id') %>% 
    mutate(grupos_ward) %>%
    pivot_longer(-c(grupos_ward, hex_id), names_to = "variable", values_to = "valor") %>% 
    inner_join(za %>% select(hex_id)))
```

    ## # A tibble: 5,032 × 5
    ##    hex_id          grupos_ward variable          valor                      geom
    ##    <chr>           <fct>       <chr>             <dbl>             <POLYGON [°]>
    ##  1 844cf25ffffffff 1           ESA Trees       31.9    ((-70.53184 19.95335, -7…
    ##  2 844cf25ffffffff 1           ESA Shrubland    0.0191 ((-70.53184 19.95335, -7…
    ##  3 844cf25ffffffff 1           ESA Grassland   12.1    ((-70.53184 19.95335, -7…
    ##  4 844cf25ffffffff 1           ESA Cropland     0.0599 ((-70.53184 19.95335, -7…
    ##  5 844cf25ffffffff 1           ESA Built-up     1.49   ((-70.53184 19.95335, -7…
    ##  6 844cf25ffffffff 1           ESA Barren / s…  0.109  ((-70.53184 19.95335, -7…
    ##  7 844cf25ffffffff 1           ESA Open water  53.3    ((-70.53184 19.95335, -7…
    ##  8 844cf25ffffffff 1           ESA Herbaceous…  0.666  ((-70.53184 19.95335, -7…
    ##  9 844cf25ffffffff 1           ESA Mangroves    0.378  ((-70.53184 19.95335, -7…
    ## 10 844cf25ffffffff 1           CGL Closed for…  0      ((-70.53184 19.95335, -7…
    ## # … with 5,022 more rows
…
