…
    ## Warning: attribute variables are assumed to be spatially constant throughout all
    ## geometries

``` r
reg_pres_sf_ok
```

    ## Simple feature collection with 741 features and 140 fields
    ## Geometry type: POINT
    ## Dimension:     XY
    ## Bounding box:  xmin: -71.7833 ymin: 17.6083 xmax: -68.36389 ymax: 19.90406
    ## Geodetic CRS:  WGS 84
    ## # A tibble: 741 × 141
    ##    key        scientificName  issues datasetKey publishingOrgKey installationKey
    ##  * <chr>      <chr>           <chr>  <chr>      <chr>            <chr>          
    ##  1 3456145174 Coccoloba uvif… "cdro… 50c9509d-… 28eb1a3f-1c15-4… 997448a8-f762-…
    ##  2 3456792675 Coccoloba uvif… "cdro… 50c9509d-… 28eb1a3f-1c15-4… 997448a8-f762-…
    ##  3 3466541063 Coccoloba uvif… "cdro… 50c9509d-… 28eb1a3f-1c15-4… 997448a8-f762-…
    ##  4 3466380155 Coccoloba uvif… "cdro… 50c9509d-… 28eb1a3f-1c15-4… 997448a8-f762-…
    ##  5 3499495279 Coccoloba uvif… "cdro… 50c9509d-… 28eb1a3f-1c15-4… 997448a8-f762-…
    ##  6 3499565621 Antigonon lept… ""     50c9509d-… 28eb1a3f-1c15-4… 997448a8-f762-…
    ##  7 3499610779 Coccoloba uvif… "cdro… 50c9509d-… 28eb1a3f-1c15-4… 997448a8-f762-…
    ##  8 3892329389 Coccoloba uvif… "cdro… 50c9509d-… 28eb1a3f-1c15-4… 997448a8-f762-…
    ##  9 3925445445 Coccoloba uvif… "cdro… 50c9509d-… 28eb1a3f-1c15-4… 997448a8-f762-…
    ## 10 3784721445 Coccoloba uvif… "cdro… 50c9509d-… 28eb1a3f-1c15-4… 997448a8-f762-…
    ## # … with 731 more rows, and 135 more variables: publishingCountry <chr>,
    ## #   protocol <chr>, lastCrawled <chr>, lastParsed <chr>, crawlId <int>,
    ## #   hostingOrganizationKey <chr>, basisOfRecord <chr>, occurrenceStatus <chr>,
    ## #   taxonKey <int>, kingdomKey <int>, phylumKey <int>, classKey <int>,
    ## #   orderKey <int>, familyKey <int>, genusKey <int>, speciesKey <int>,
    ## #   acceptedTaxonKey <int>, acceptedScientificName <chr>, kingdom <chr>,
    ## #   phylum <chr>, order <chr>, family <chr>, genus <chr>, species <chr>, …
…
